EDA-Challanges
…
Create new variable BSD

d$BSD <- d$ Body_mass_male_mean/ d$Body_mass_female_mean
print(d)

# A tibble: 213 × 24
   Scientific_Name             Family       Genus Species Brain_Size_Species_M…¹
   <chr>                       <chr>        <chr> <chr>                    <dbl>
 1 Allenopithecus_nigroviridis Cercopithec… Alle… nigrov…                   58.0
 2 Allocebus_trichotis         Cercopithec… Allo… tricho…                   NA  
 3 Alouatta_belzebul           Atelidae     Alou… belzeb…                   52.8
 4 Alouatta_caraya             Atelidae     Alou… caraya                    52.6
 5 Alouatta_guariba            Atelidae     Alou… guariba                   51.7
 6 Alouatta_palliata           Atelidae     Alou… pallia…                   49.9
 7 Alouatta_pigra              Atelidae     Alou… pigra                     51.1
 8 Alouatta_seniculus          Atelidae     Alou… senicu…                   55.2
 9 Aotus_azarai                Cebidae      Aotus azarai                    20.7
10 Aotus_brumbacki             Cebidae      Aotus brumba…                   NA  
# ℹ 203 more rows
# ℹ abbreviated name: ¹​Brain_Size_Species_Mean
# ℹ 19 more variables: Body_mass_male_mean <dbl>, Body_mass_female_mean <dbl>,
#   MeanGroupSize <dbl>, AdultMales <dbl>, AdultFemale <dbl>,
#   GR_MidRangeLat_dd <dbl>, Precip_Mean_mm <dbl>, Temp_Mean_degC <dbl>,
#   HomeRange_km2 <dbl>, DayLength_km <dbl>, Fruit <dbl>, Leaves <chr>,
#   Fauna <chr>, Canine_Dimorphism <dbl>, Feed <dbl>, Move <dbl>, Rest <dbl>, …

Create new variable sex-ratio

d$Sex_ratio <- d$ AdultFemale/ d$ AdultMales
print(d)

# A tibble: 213 × 25
   Scientific_Name             Family       Genus Species Brain_Size_Species_M…¹
   <chr>                       <chr>        <chr> <chr>                    <dbl>
 1 Allenopithecus_nigroviridis Cercopithec… Alle… nigrov…                   58.0
 2 Allocebus_trichotis         Cercopithec… Allo… tricho…                   NA  
 3 Alouatta_belzebul           Atelidae     Alou… belzeb…                   52.8
 4 Alouatta_caraya             Atelidae     Alou… caraya                    52.6
 5 Alouatta_guariba            Atelidae     Alou… guariba                   51.7
 6 Alouatta_palliata           Atelidae     Alou… pallia…                   49.9
 7 Alouatta_pigra              Atelidae     Alou… pigra                     51.1
 8 Alouatta_seniculus          Atelidae     Alou… senicu…                   55.2
 9 Aotus_azarai                Cebidae      Aotus azarai                    20.7
10 Aotus_brumbacki             Cebidae      Aotus brumba…                   NA  
# ℹ 203 more rows
# ℹ abbreviated name: ¹​Brain_Size_Species_Mean
# ℹ 20 more variables: Body_mass_male_mean <dbl>, Body_mass_female_mean <dbl>,
#   MeanGroupSize <dbl>, AdultMales <dbl>, AdultFemale <dbl>,
#   GR_MidRangeLat_dd <dbl>, Precip_Mean_mm <dbl>, Temp_Mean_degC <dbl>,
#   HomeRange_km2 <dbl>, DayLength_km <dbl>, Fruit <dbl>, Leaves <chr>,
#   Fauna <chr>, Canine_Dimorphism <dbl>, Feed <dbl>, Move <dbl>, Rest <dbl>, …

Create new variable DI ( Defensibility Index)

d$DI <- d$ DayLength_km/ d$ HomeRange_km2
print(d)

# A tibble: 213 × 26
   Scientific_Name             Family       Genus Species Brain_Size_Species_M…¹
   <chr>                       <chr>        <chr> <chr>                    <dbl>
 1 Allenopithecus_nigroviridis Cercopithec… Alle… nigrov…                   58.0
 2 Allocebus_trichotis         Cercopithec… Allo… tricho…                   NA  
 3 Alouatta_belzebul           Atelidae     Alou… belzeb…                   52.8
 4 Alouatta_caraya             Atelidae     Alou… caraya                    52.6
 5 Alouatta_guariba            Atelidae     Alou… guariba                   51.7
 6 Alouatta_palliata           Atelidae     Alou… pallia…                   49.9
 7 Alouatta_pigra              Atelidae     Alou… pigra                     51.1
 8 Alouatta_seniculus          Atelidae     Alou… senicu…                   55.2
 9 Aotus_azarai                Cebidae      Aotus azarai                    20.7
10 Aotus_brumbacki             Cebidae      Aotus brumba…                   NA  
# ℹ 203 more rows
# ℹ abbreviated name: ¹​Brain_Size_Species_Mean
# ℹ 21 more variables: Body_mass_male_mean <dbl>, Body_mass_female_mean <dbl>,
#   MeanGroupSize <dbl>, AdultMales <dbl>, AdultFemale <dbl>,
#   GR_MidRangeLat_dd <dbl>, Precip_Mean_mm <dbl>, Temp_Mean_degC <dbl>,
#   HomeRange_km2 <dbl>, DayLength_km <dbl>, Fruit <dbl>, Leaves <chr>,
#   Fauna <chr>, Canine_Dimorphism <dbl>, Feed <dbl>, Move <dbl>, Rest <dbl>, …

Calculate Diameter of the home range for each species

d$home_range_diameter <- d$HomeRange_km2/ 2
d$home_range_area <- pi * (d$home_range_diameter^2)
d$DI <- d$DayLength_km/ d$HomeRange_km2
print(d)

# A tibble: 213 × 28
   Scientific_Name             Family       Genus Species Brain_Size_Species_M…¹
   <chr>                       <chr>        <chr> <chr>                    <dbl>
 1 Allenopithecus_nigroviridis Cercopithec… Alle… nigrov…                   58.0
 2 Allocebus_trichotis         Cercopithec… Allo… tricho…                   NA  
 3 Alouatta_belzebul           Atelidae     Alou… belzeb…                   52.8
 4 Alouatta_caraya             Atelidae     Alou… caraya                    52.6
 5 Alouatta_guariba            Atelidae     Alou… guariba                   51.7
 6 Alouatta_palliata           Atelidae     Alou… pallia…                   49.9
 7 Alouatta_pigra              Atelidae     Alou… pigra                     51.1
 8 Alouatta_seniculus          Atelidae     Alou… senicu…                   55.2
 9 Aotus_azarai                Cebidae      Aotus azarai                    20.7
10 Aotus_brumbacki             Cebidae      Aotus brumba…                   NA  
# ℹ 203 more rows
# ℹ abbreviated name: ¹​Brain_Size_Species_Mean
# ℹ 23 more variables: Body_mass_male_mean <dbl>, Body_mass_female_mean <dbl>,
#   MeanGroupSize <dbl>, AdultMales <dbl>, AdultFemale <dbl>,
#   GR_MidRangeLat_dd <dbl>, Precip_Mean_mm <dbl>, Temp_Mean_degC <dbl>,
#   HomeRange_km2 <dbl>, DayLength_km <dbl>, Fruit <dbl>, Leaves <chr>,
#   Fauna <chr>, Canine_Dimorphism <dbl>, Feed <dbl>, Move <dbl>, Rest <dbl>, …
…
Linear relationship between Body size Dimorphism and canine size Dimorphism is observed greatly among Cercopithecidae family.

12.Creating a new variable named diet_strategy and the box-plots

d <- d%>%
  mutate(diet_strategy = case_when(
    Fruit > 50 ~ "frugivore",
    Leaves > 50 ~ "folivore",
    TRUE ~ "omnivore"
  ))
print(d)

# A tibble: 213 × 29
   Scientific_Name             Family       Genus Species Brain_Size_Species_M…¹
   <chr>                       <chr>        <chr> <chr>                    <dbl>
 1 Allenopithecus_nigroviridis Cercopithec… Alle… nigrov…                   58.0
 2 Allocebus_trichotis         Cercopithec… Allo… tricho…                   NA  
 3 Alouatta_belzebul           Atelidae     Alou… belzeb…                   52.8
 4 Alouatta_caraya             Atelidae     Alou… caraya                    52.6
 5 Alouatta_guariba            Atelidae     Alou… guariba                   51.7
 6 Alouatta_palliata           Atelidae     Alou… pallia…                   49.9
 7 Alouatta_pigra              Atelidae     Alou… pigra                     51.1
 8 Alouatta_seniculus          Atelidae     Alou… senicu…                   55.2
 9 Aotus_azarai                Cebidae      Aotus azarai                    20.7
10 Aotus_brumbacki             Cebidae      Aotus brumba…                   NA  
# ℹ 203 more rows
# ℹ abbreviated name: ¹​Brain_Size_Species_Mean
# ℹ 24 more variables: Body_mass_male_mean <dbl>, Body_mass_female_mean <dbl>,
#   MeanGroupSize <dbl>, AdultMales <dbl>, AdultFemale <dbl>,
#   GR_MidRangeLat_dd <dbl>, Precip_Mean_mm <dbl>, Temp_Mean_degC <dbl>,
#   HomeRange_km2 <dbl>, DayLength_km <dbl>, Fruit <dbl>, Leaves <chr>,
#   Fauna <chr>, Canine_Dimorphism <dbl>, Feed <dbl>, Move <dbl>, Rest <dbl>, …
…
